<?xml version="1.0" encoding="UTF-8" standalone="no"?>
<svg
   xmlns:dc="http://purl.org/dc/elements/1.1/"
   xmlns:cc="http://creativecommons.org/ns#"
   xmlns:rdf="http://www.w3.org/1999/02/22-rdf-syntax-ns#"
   xmlns:svg="http://www.w3.org/2000/svg"
   xmlns="http://www.w3.org/2000/svg"
   xmlns:xlink="http://www.w3.org/1999/xlink"
   xmlns:sodipodi="http://sodipodi.sourceforge.net/DTD/sodipodi-0.dtd"
   xmlns:inkscape="http://www.inkscape.org/namespaces/inkscape"
   viewBox="0 0 144 122.89442"
   id="svg2"
   version="1.1"
   inkscape:version="0.91 r13725"
   sodipodi:docname="twins male.svg"
   width="144"
   height="122.89442">
  <metadata
     id="metadata98">
    <rdf:RDF>
      <cc:Work
         rdf:about="">
        <dc:format>image/svg+xml</dc:format>
        <dc:type
           rdf:resource="http://purl.org/dc/dcmitype/StillImage" />
        <dc:title></dc:title>
      </cc:Work>
    </rdf:RDF>
  </metadata>
  <sodipodi:namedview
     pagecolor="#ffffff"
     bordercolor="#666666"
     borderopacity="1"
     objecttolerance="10"
     gridtolerance="10"
     guidetolerance="10"
     inkscape:pageopacity="0"
     inkscape:pageshadow="2"
     inkscape:window-width="1249"
     inkscape:window-height="828"
     id="namedview96"
     showgrid="false"
     inkscape:zoom="1.9306667"
     inkscape:cx="106.04696"
     inkscape:cy="72"
     inkscape:window-x="0"
     inkscape:window-y="0"
     inkscape:window-maximized="0"
     inkscape:current-layer="g22"
     fit-margin-top="0"
     fit-margin-left="0"
     fit-margin-right="0"
     fit-margin-bottom="0" />
  <defs
     id="defs4">
    <path
       id="r"
       d="M 0,0 40,0 40,40 0,40 Z"
       transform="translate(-20,-20)"
       inkscape:connector-curvature="0"
       style="fill:#ffffff;stroke:#000000;stroke-width:4" />
    <path
       id="t"
       d="M 20,0 40,40 0,40 Z"
       transform="translate(-20,-20)"
       inkscape:connector-curvature="0"
       style="fill:#ffffff;stroke:#000000;stroke-width:4" />
    <circle
       id="c"
       r="20"
       cx="0"
       cy="0"
       style="fill:#ffffff;stroke:#000000;stroke-width:4" />
    <path
       id="y"
       d="m -20,-20 40,40 m 0,-40 -40,40"
       inkscape:connector-curvature="0"
       style="fill:none;stroke:#000000;stroke-width:2" />
  </defs>
  <path
     d="M 72,0.89442719 22,100.89443 M 72,0.89442719 122,100.89443"
     id="path16"
     inkscape:connector-curvature="0"
     style="fill:none;stroke:#000000;stroke-width:4"
     sodipodi:nodetypes="cccc" />
  <g
     transform="translate(-1078,100.89443)"
     style="font-size:20px;font-family:sans-serif;text-anchor:middle"
     id="g22">
    <use
       xlink:href="#r"
       x="1100"
       id="use52"
       y="0"
       width="100%"
       height="100%" />
    <use
       height="100%"
       width="100%"
       y="0"
       id="use4161"
       x="1100"
       xlink:href="#r"
       transform="translate(100,0)" />
  </g>
</svg>
